[
  {
    "id": "te-001",
    "text": "Fix TypeError: 'NoneType' object is not subscriptable in data_loader.py when CSV file has empty header rows.",
    "repo_name": "pandas-dev/pandas",
    "search_stage": "$ find . -name 'data_loader.py'\n./pandas/io/data_loader.py\n\n$ grep -n 'header' pandas/io/data_loader.py\n45:    def _parse_header(self, row):\n46:        return row[0].split(',')\n89:        header = self._parse_header(rows[0])\n\n$ cat pandas/io/data_loader.py:40-50\n40: class CSVLoader:\n41:     def load(self, filepath):\n42:         rows = self._read_raw(filepath)\n43:         header = self._parse_header(rows[0])\n44:         ...\n45:     def _parse_header(self, row):\n46:         return row[0].split(',')",
    "edit_stage": "$ edit pandas/io/data_loader.py\n--- a/pandas/io/data_loader.py\n+++ b/pandas/io/data_loader.py\n@@ -42,7 +42,10 @@\n     def load(self, filepath):\n         rows = self._read_raw(filepath)\n-        header = self._parse_header(rows[0])\n+        # Skip empty rows at the beginning\n+        first_row = next((r for r in rows if r and r[0]), None)\n+        if first_row is None:\n+            raise ValueError(\"CSV file has no valid header row\")\n+        header = self._parse_header(first_row)",
    "verify_stage": "$ python -m pytest tests/io/test_csv_loader.py -v\ntest_load_normal_csv PASSED\ntest_load_empty_header PASSED\ntest_load_no_header PASSED\ntest_load_multiple_empty_rows PASSED\n\n$ python -c \"from pandas.io.data_loader import CSVLoader; CSVLoader().load('test_empty_header.csv')\"\nValueError: CSV file has no valid header row\n\n4 tests passed, 0 failed.",
    "final_result": "PASS - All tests pass, fix handles empty headers correctly."
  },
  {
    "id": "te-002",
    "text": "Add support for custom timeout parameter in HTTP client's retry mechanism. Currently retries use hardcoded 30s timeout.",
    "repo_name": "psf/requests",
    "search_stage": "$ grep -rn 'timeout' requests/adapters.py\n78:    DEFAULT_TIMEOUT = 30\n112:        timeout=self.DEFAULT_TIMEOUT,\n145:    def send(self, request, timeout=None):\n146:        timeout = timeout or self.DEFAULT_TIMEOUT\n\n$ grep -rn 'retry' requests/adapters.py\n98:    def _retry(self, request, retries=3):\n99:        for attempt in range(retries):\n101:            response = self._do_send(request, timeout=self.DEFAULT_TIMEOUT)\n\n$ cat requests/adapters.py:95-110\n95:  class HTTPAdapter:\n96:      DEFAULT_TIMEOUT = 30\n97:\n98:      def _retry(self, request, retries=3):\n99:          for attempt in range(retries):\n100:             try:\n101:                 response = self._do_send(request, timeout=self.DEFAULT_TIMEOUT)\n102:                 return response\n103:             except TimeoutError:\n104:                 if attempt == retries - 1:\n105:                     raise\n106:                 time.sleep(2 ** attempt)",
    "edit_stage": "$ edit requests/adapters.py\n--- a/requests/adapters.py\n+++ b/requests/adapters.py\n@@ -98,10 +98,10 @@\n-    def _retry(self, request, retries=3):\n+    def _retry(self, request, retries=3, timeout=None):\n+        timeout = timeout or self.DEFAULT_TIMEOUT\n         for attempt in range(retries):\n             try:\n-                response = self._do_send(request, timeout=self.DEFAULT_TIMEOUT)\n+                response = self._do_send(request, timeout=timeout)\n                 return response\n\n@@ -145,7 +145,7 @@\n     def send(self, request, timeout=None, retries=3):\n         timeout = timeout or self.DEFAULT_TIMEOUT\n-        return self._retry(request, retries=retries)\n+        return self._retry(request, retries=retries, timeout=timeout)",
    "verify_stage": "$ python -m pytest tests/test_adapters.py -v\ntest_default_timeout PASSED\ntest_custom_timeout PASSED\ntest_retry_uses_custom_timeout PASSED\ntest_retry_default_timeout PASSED\ntest_timeout_none_uses_default PASSED\n\n5 tests passed, 0 failed.",
    "final_result": "PASS - Custom timeout propagated through retry mechanism correctly."
  },
  {
    "id": "te-003",
    "text": "Fix race condition in cache invalidation where concurrent writes can cause stale data to persist after TTL expiry.",
    "repo_name": "redis/redis-py",
    "search_stage": "$ grep -rn 'invalidate\\|ttl\\|expire' redis/cache.py\n34:    def set(self, key, value, ttl=None):\n55:    def invalidate(self, key):\n67:    def _check_ttl(self, key):\n\n$ cat redis/cache.py:30-70\n30: class Cache:\n31:     def __init__(self):\n32:         self._store = {}\n33:         self._locks = {}\n34:     def set(self, key, value, ttl=None):\n35:         self._store[key] = {'value': value, 'expires': time.time() + ttl if ttl else None}\n36:     def get(self, key):\n37:         entry = self._store.get(key)\n38:         if entry and self._check_ttl(key):\n39:             return entry['value']\n40:         return None\n\n$ grep -rn 'lock\\|Lock\\|threading' redis/cache.py\n3: import threading\n33:     self._locks = {}",
    "edit_stage": "$ edit redis/cache.py\n--- a/redis/cache.py\n+++ b/redis/cache.py\n@@ -31,16 +31,22 @@\n     def __init__(self):\n         self._store = {}\n-        self._locks = {}\n+        self._lock = threading.Lock()\n\n     def set(self, key, value, ttl=None):\n-        self._store[key] = {'value': value, 'expires': time.time() + ttl if ttl else None}\n+        with self._lock:\n+            self._store[key] = {'value': value, 'expires': time.time() + ttl if ttl else None}\n\n     def get(self, key):\n-        entry = self._store.get(key)\n-        if entry and self._check_ttl(key):\n-            return entry['value']\n-        return None\n+        with self._lock:\n+            entry = self._store.get(key)\n+            if entry is None:\n+                return None\n+            if entry['expires'] and time.time() > entry['expires']:\n+                del self._store[key]\n+                return None\n+            return entry['value']",
    "verify_stage": "$ python -m pytest tests/test_cache.py -v\ntest_basic_set_get PASSED\ntest_ttl_expiry PASSED\ntest_concurrent_writes PASSED\ntest_concurrent_read_write FAILED - AssertionError: Expected thread-safe deletion\n\n$ python -m pytest tests/test_cache.py::test_concurrent_read_write -v\nFAILED - The invalidate() method was not updated with locking\n\n3 passed, 1 failed.",
    "final_result": "FAIL - Edit missed updating the invalidate() method with thread locking. Race condition partially fixed but not fully resolved."
  },
  {
    "id": "te-004",
    "text": "Implement pagination support for the /api/users endpoint. Currently returns all users in a single response causing OOM on large datasets.",
    "repo_name": "tiangolo/fastapi",
    "search_stage": "$ grep -rn 'users' app/routers/users.py\n12: @router.get('/api/users')\n13: async def list_users(db: Session = Depends(get_db)):\n14:     return db.query(User).all()\n\n$ cat app/routers/users.py\n1:  from fastapi import APIRouter, Depends\n2:  from sqlalchemy.orm import Session\n3:  from app.database import get_db\n4:  from app.models import User\n5:\n6:  router = APIRouter()\n7:\n8:  @router.get('/api/users')\n9:  async def list_users(db: Session = Depends(get_db)):\n10:     return db.query(User).all()\n\n$ grep -rn 'pagination\\|paginate\\|offset\\|limit' app/\nNo results found.",
    "edit_stage": "$ edit app/routers/users.py\n--- a/app/routers/users.py\n+++ b/app/routers/users.py\n@@ -1,10 +1,24 @@\n-from fastapi import APIRouter, Depends\n+from fastapi import APIRouter, Depends, Query\n from sqlalchemy.orm import Session\n from app.database import get_db\n from app.models import User\n+from typing import Optional\n\n router = APIRouter()\n\n-@router.get('/api/users')\n-async def list_users(db: Session = Depends(get_db)):\n-    return db.query(User).all()\n+@router.get('/api/users')\n+async def list_users(\n+    db: Session = Depends(get_db),\n+    page: int = Query(1, ge=1, description=\"Page number\"),\n+    per_page: int = Query(20, ge=1, le=100, description=\"Items per page\"),\n+):\n+    total = db.query(User).count()\n+    users = db.query(User).offset((page - 1) * per_page).limit(per_page).all()\n+    return {\n+        \"data\": users,\n+        \"pagination\": {\n+            \"page\": page,\n+            \"per_page\": per_page,\n+            \"total\": total,\n+            \"pages\": (total + per_page - 1) // per_page\n+        }\n+    }",
    "verify_stage": "$ python -m pytest tests/test_users.py -v\ntest_list_users_default_pagination PASSED\ntest_list_users_custom_page PASSED\ntest_list_users_invalid_page PASSED\ntest_list_users_per_page_limit PASSED\ntest_list_users_empty_page PASSED\ntest_list_users_pagination_metadata PASSED\n\n6 tests passed, 0 failed.\n\n$ curl localhost:8000/api/users?page=1&per_page=5 | python -m json.tool\n{\"data\": [...5 users...], \"pagination\": {\"page\": 1, \"per_page\": 5, \"total\": 1243, \"pages\": 249}}",
    "final_result": "PASS - Pagination implemented with configurable page size and metadata. All tests pass."
  },
  {
    "id": "te-005",
    "text": "Fix incorrect timezone conversion in scheduling module. Events created in PST are displayed 1 hour off in EST.",
    "repo_name": "django/django",
    "search_stage": "$ grep -rn 'timezone\\|tz\\|convert' scheduler/utils.py\n12: def convert_timezone(dt, from_tz, to_tz):\n13:     localized = from_tz.localize(dt)\n14:     return localized.astimezone(to_tz).replace(tzinfo=None)\n\n$ grep -rn 'convert_timezone' scheduler/\nscheduler/utils.py:12\nscheduler/views.py:45\nscheduler/models.py:78\n\n$ cat scheduler/utils.py:10-20\n10: import pytz\n11:\n12: def convert_timezone(dt, from_tz, to_tz):\n13:     localized = from_tz.localize(dt)\n14:     return localized.astimezone(to_tz).replace(tzinfo=None)\n\n$ cat scheduler/views.py:42-50\n42: def display_event(event, user_tz):\n43:     from_tz = pytz.timezone('US/Pacific')\n44:     to_tz = pytz.timezone(user_tz)\n45:     display_time = convert_timezone(event.start_time, from_tz, to_tz)\n46:     return display_time",
    "edit_stage": "$ edit scheduler/utils.py\n--- a/scheduler/utils.py\n+++ b/scheduler/utils.py\n@@ -10,8 +10,11 @@\n-import pytz\n+from zoneinfo import ZoneInfo\n+from datetime import timezone\n\n-def convert_timezone(dt, from_tz, to_tz):\n-    localized = from_tz.localize(dt)\n-    return localized.astimezone(to_tz).replace(tzinfo=None)\n+def convert_timezone(dt, from_tz_name, to_tz_name):\n+    from_tz = ZoneInfo(from_tz_name)\n+    to_tz = ZoneInfo(to_tz_name)\n+    if dt.tzinfo is None:\n+        dt = dt.replace(tzinfo=from_tz)\n+    return dt.astimezone(to_tz)\n\n$ edit scheduler/views.py\n--- a/scheduler/views.py\n+++ b/scheduler/views.py\n@@ -42,6 +42,5 @@\n def display_event(event, user_tz):\n-    from_tz = pytz.timezone('US/Pacific')\n-    to_tz = pytz.timezone(user_tz)\n-    display_time = convert_timezone(event.start_time, from_tz, to_tz)\n+    display_time = convert_timezone(event.start_time, 'US/Pacific', user_tz)\n     return display_time",
    "verify_stage": "$ python -m pytest tests/test_scheduler.py -v\ntest_pst_to_est_conversion PASSED\ntest_pst_to_utc_conversion PASSED\ntest_dst_boundary PASSED\ntest_aware_datetime_input PASSED\ntest_naive_datetime_input PASSED\n\n5 tests passed, 0 failed.\n\n$ python -c \"\nfrom scheduler.utils import convert_timezone\nfrom datetime import datetime\ndt = datetime(2026, 3, 15, 10, 0)  # 10am PST\nresult = convert_timezone(dt, 'US/Pacific', 'US/Eastern')\nprint(result)  # Should be 1pm EST\n\"\n2026-03-15 13:00:00-04:00",
    "final_result": "PASS - Timezone conversion fixed. Migrated from pytz to zoneinfo. All tests pass including DST boundary cases."
  },
  {
    "id": "te-006",
    "text": "Memory leak in WebSocket connection handler - connections are not properly cleaned up when clients disconnect abruptly.",
    "repo_name": "encode/starlette",
    "search_stage": "$ grep -rn 'websocket\\|WebSocket\\|disconnect' starlette/websockets.py\n23: class WebSocketHandler:\n45:     async def on_connect(self, ws):\n52:     async def on_disconnect(self, ws):\n60:     _active_connections = set()\n\n$ cat starlette/websockets.py:40-70\n40: class WebSocketHandler:\n41:     _active_connections = set()\n42:\n43:     async def on_connect(self, ws):\n44:         self._active_connections.add(ws)\n45:         self._buffers[ws] = []\n46:\n47:     async def on_disconnect(self, ws):\n48:         self._active_connections.discard(ws)\n49:         # BUG: _buffers[ws] never cleaned up\n50:\n51:     async def handle(self, ws):\n52:         await self.on_connect(ws)\n53:         try:\n54:             async for msg in ws:\n55:                 self._buffers[ws].append(msg)\n56:         except Exception:\n57:             pass  # Connection lost\n58:         # BUG: on_disconnect not called on exception path",
    "edit_stage": "$ edit starlette/websockets.py\n--- a/starlette/websockets.py\n+++ b/starlette/websockets.py\n@@ -47,15 +47,16 @@\n     async def on_disconnect(self, ws):\n         self._active_connections.discard(ws)\n+        self._buffers.pop(ws, None)\n\n     async def handle(self, ws):\n         await self.on_connect(ws)\n         try:\n             async for msg in ws:\n                 self._buffers[ws].append(msg)\n-        except Exception:\n-            pass  # Connection lost\n+        except Exception as e:\n+            logger.debug(f\"WebSocket connection lost: {e}\")\n+        finally:\n+            await self.on_disconnect(ws)",
    "verify_stage": "$ python -m pytest tests/test_websockets.py -v\ntest_normal_connect_disconnect PASSED\ntest_abrupt_disconnect PASSED\ntest_buffer_cleanup PASSED\ntest_connection_tracking PASSED\ntest_multiple_connections PASSED\ntest_concurrent_disconnect PASSED\n\n6 tests passed, 0 failed.\n\n$ python tests/memory_leak_check.py\nBefore: 100 connections, memory: 45MB\nAfter disconnect: 0 connections, memory: 12MB\nBuffer count: 0\nNo memory leak detected.",
    "final_result": "PASS - Memory leak fixed. Buffers cleaned up on disconnect. Finally block ensures cleanup on abrupt disconnection."
  },
  {
    "id": "te-007",
    "text": "Add rate limiting middleware to prevent API abuse. Should support configurable limits per endpoint and return 429 status when exceeded.",
    "repo_name": "pallets/flask",
    "search_stage": "$ find . -name 'middleware*' -o -name 'rate*'\n./flask/middleware/__init__.py\n\n$ cat flask/middleware/__init__.py\n1: # Middleware module\n2: from .cors import CORSMiddleware\n\n$ grep -rn 'rate_limit\\|throttle\\|429' flask/\nNo results found.\n\n$ grep -rn 'before_request\\|after_request' flask/app.py\n234:     def before_request(self, f):\n241:     def after_request(self, f):",
    "edit_stage": "$ cat > flask/middleware/rate_limit.py\nimport time\nfrom collections import defaultdict\nfrom flask import request, jsonify\n\nclass RateLimiter:\n    def __init__(self, app=None, default_limit=100, window=3600):\n        self.limits = {}\n        self.default_limit = default_limit\n        self.window = window\n        self._requests = defaultdict(list)\n        if app:\n            self.init_app(app)\n\n    def init_app(self, app):\n        app.before_request(self._check_rate_limit)\n\n    def limit(self, endpoint, max_requests, window=None):\n        self.limits[endpoint] = {'max': max_requests, 'window': window or self.window}\n\n    def _check_rate_limit(self):\n        key = f\"{request.remote_addr}:{request.endpoint}\"\n        config = self.limits.get(request.endpoint, {'max': self.default_limit, 'window': self.window})\n        now = time.time()\n        self._requests[key] = [t for t in self._requests[key] if now - t < config['window']]\n        if len(self._requests[key]) >= config['max']:\n            return jsonify({'error': 'Rate limit exceeded'}), 429\n        self._requests[key].append(now)\n\n$ edit flask/middleware/__init__.py\n+from .rate_limit import RateLimiter",
    "verify_stage": "$ python -m pytest tests/test_rate_limit.py -v\ntest_under_limit PASSED\ntest_at_limit PASSED\ntest_over_limit_returns_429 PASSED\ntest_custom_endpoint_limit PASSED\ntest_window_reset PASSED\ntest_different_ips_independent FAILED - defaultdict not thread-safe for concurrent requests\n\n5 passed, 1 failed.",
    "final_result": "FAIL - Rate limiter works for basic cases but is not thread-safe. Concurrent requests from different IPs can cause race conditions in the defaultdict."
  },
  {
    "id": "te-008",
    "text": "Fix SQL injection vulnerability in user search endpoint. The search query is directly interpolated into the SQL string.",
    "repo_name": "sqlalchemy/sqlalchemy",
    "search_stage": "$ grep -rn 'search\\|query.*user' app/routes/search.py\n15: def search_users(query_string):\n16:     sql = f\"SELECT * FROM users WHERE name LIKE '%{query_string}%'\"\n17:     result = db.execute(sql)\n\n$ cat app/routes/search.py\n1:  from flask import request\n2:  from app.database import db\n3:\n4:  @app.route('/api/search/users')\n5:  def search_users_endpoint():\n6:      q = request.args.get('q', '')\n7:      return search_users(q)\n8:\n9:  def search_users(query_string):\n10:     sql = f\"SELECT * FROM users WHERE name LIKE '%{query_string}%'\"\n11:     result = db.execute(sql)\n12:     return [dict(row) for row in result]",
    "edit_stage": "$ edit app/routes/search.py\n--- a/app/routes/search.py\n+++ b/app/routes/search.py\n@@ -1,12 +1,14 @@\n from flask import request\n-from app.database import db\n+from app.database import db, User\n+from sqlalchemy import text\n\n @app.route('/api/search/users')\n def search_users_endpoint():\n     q = request.args.get('q', '')\n     return search_users(q)\n\n def search_users(query_string):\n-    sql = f\"SELECT * FROM users WHERE name LIKE '%{query_string}%'\"\n-    result = db.execute(sql)\n-    return [dict(row) for row in result]\n+    sql = text(\"SELECT * FROM users WHERE name LIKE :pattern\")\n+    pattern = f\"%{query_string}%\"\n+    result = db.execute(sql, {\"pattern\": pattern})\n+    return [dict(row) for row in result]",
    "verify_stage": "$ python -m pytest tests/test_search.py -v\ntest_basic_search PASSED\ntest_empty_search PASSED\ntest_special_characters PASSED\ntest_sql_injection_attempt PASSED\ntest_unicode_search PASSED\n\n5 tests passed, 0 failed.\n\n$ python -c \"\nfrom app.routes.search import search_users\n# Attempt SQL injection\nresult = search_users(\"'; DROP TABLE users; --\")\nprint('Table still exists:', db.execute('SELECT count(*) FROM users').scalar())\n\"\nTable still exists: 1243",
    "final_result": "PASS - SQL injection vulnerability fixed using parameterized queries. All tests pass including injection attempts."
  }
]
